…
 4  1895 Mary   13493
 5  1900 Mary   16781
 6  1905 Mary   16135
 7  1910 Mary   22947
 8  1915 Mary   58346
 9  1920 Mary   71175
10  1925 Mary   70857
=======================================================================================
Visualizing names with ggplot2
```{r}
# Filter for the names Steven, Thomas, and Matthew 
selected_names <- babynames %>%
  filter(name %in% c("Steven","Thomas", "Matthew"))
```
A tibble: 84 x 3
    year name    number
   <dbl> <chr>    <int>
 1  1880 Matthew    113
 2  1880 Steven      17
 3  1880 Thomas    2542
 4  1885 Matthew    111
 5  1885 Steven      21
 6  1885 Thomas    2275
 7  1890 Matthew     86
 8  1890 Steven      20
 9  1890 Thomas    2209
10  1895 Matthew    112
# ... with 74 more rows
…
